%YAML 1.1
%TAG !u! tag:unity3d.com,2011:
--- !u!114 &11400000
MonoBehaviour:
  m_ObjectHideFlags: 0
  m_CorrespondingSourceObject: {fileID: 0}
  m_PrefabInternal: {fileID: 0}
  m_GameObject: {fileID: 0}
  m_Enabled: 1
  m_EditorHideFlags: 0
  m_Script: {fileID: 11500000, guid: 20d50f74940b304499a0813a8ac9bcba, type: 3}
  m_Name: Action_Enemy Attack
  m_EditorClassIdentifier: 
  waitTime: 0.5
  variety: 0.2
