%YAML 1.1
%TAG !u! tag:unity3d.com,2011:
--- !u!114 &11400000
MonoBehaviour:
  m_ObjectHideFlags: 0
  m_CorrespondingSourceObject: {fileID: 0}
  m_PrefabInternal: {fileID: 0}
  m_GameObject: {fileID: 0}
  m_Enabled: 1
  m_EditorHideFlags: 0
  m_Script: {fileID: 680703436, guid: 4f0627da958b4bb78c260446066f065f, type: 3}
  m_Name: ProBuilderPreferences
  m_EditorClassIdentifier: 
  m_Bool_keys:
  - pbStripProBuilderOnBuild
  - pbDisableAutoUV2Generation
  - pbForceConvex
  - pbMeshesAreAssets
  m_Int_keys:
  - pbHandleAlignment
  - pbDefaultCollider
  - pbShadowCastingMode
  - pbDefaultStaticFlags
  - pbDefaultEditLevel
  - pbDefaultSelectionMode
  - pb_GIWorkflowMode
  m_Float_keys:
  - pbEditorScroll.x
  - pbEditorScroll.y
  - pbBevelAmount
  m_String_keys:
  - pbCurrentMaterialPalette
  m_Color_keys: []
  m_Material_keys:
  - pbDefaultMaterial
  m_Bool_values: 01000000
  m_Int_values: 00000000020000000200000000000000000000000200000001000000
  m_Float_values:
  - 0
  - 0
  - 0.99
  m_String_values:
  - Assets/ProBuilder Data/Default Material Palette.asset
  m_Color_values: []
  m_Material_values:
  - {fileID: 2100000, guid: f8af10ae2c674e569782e57b09c76a13, type: 2}
