%YAML 1.1
%TAG !u! tag:unity3d.com,2011:
--- !u!114 &11400000
MonoBehaviour:
  m_ObjectHideFlags: 0
  m_CorrespondingSourceObject: {fileID: 0}
  m_PrefabInternal: {fileID: 0}
  m_GameObject: {fileID: 0}
  m_Enabled: 1
  m_EditorHideFlags: 0
  m_Script: {fileID: 11500000, guid: 422569b7ca6f57840907fd0d99cface3, type: 3}
  m_Name: Stage2
  m_EditorClassIdentifier: 
  goal: 1
  enemiesTokillCount: 10
  timerDuration: 120
